<?xml version="1.0" encoding="utf-8"?>
<COLLADA xmlns="http://www.collada.org/2005/11/COLLADASchema" version="1.4.1">
  <asset>
    <contributor>
      <author>Blender User</author>
      <authoring_tool>Blender 2.78.0 commit date:2017-02-24, commit time:14:33, hash:e92f235</authoring_tool>
    </contributor>
    <created>2017-09-08T13:28:38</created>
    <modified>2017-09-08T13:28:38</modified>
    <unit name="meter" meter="1"/>
    <up_axis>Z_UP</up_axis>
  </asset>
  <library_images/>
  <library_effects>
    <effect id="SVGMat_004-effect">
      <profile_COMMON>
        <technique sid="common">
          <phong>
            <emission>
              <color sid="emission">0 0 0 1</color>
            </emission>
            <ambient>
              <color sid="ambient">0 0 0 1</color>
            </ambient>
            <diffuse>
              <color sid="diffuse">0 0 0 1</color>
            </diffuse>
            <specular>
              <color sid="specular">0.5 0.5 0.5 1</color>
            </specular>
            <shininess>
              <float sid="shininess">50</float>
            </shininess>
            <index_of_refraction>
              <float sid="index_of_refraction">1</float>
            </index_of_refraction>
          </phong>
        </technique>
      </profile_COMMON>
    </effect>
    <effect id="SVGMat_005-effect">
      <profile_COMMON>
        <technique sid="common">
          <phong>
            <emission>
              <color sid="emission">0 0 0 1</color>
            </emission>
            <ambient>
              <color sid="ambient">0 0 0 1</color>
            </ambient>
            <diffuse>
              <color sid="diffuse">0 0 0 1</color>
            </diffuse>
            <specular>
              <color sid="specular">0.5 0.5 0.5 1</color>
            </specular>
            <shininess>
              <float sid="shininess">50</float>
            </shininess>
            <index_of_refraction>
              <float sid="index_of_refraction">1</float>
            </index_of_refraction>
          </phong>
        </technique>
      </profile_COMMON>
    </effect>
  </library_effects>
  <library_materials>
    <material id="SVGMat_004-material" name="SVGMat_004">
      <instance_effect url="#SVGMat_004-effect"/>
    </material>
    <material id="SVGMat_005-material" name="SVGMat_005">
      <instance_effect url="#SVGMat_005-effect"/>
    </material>
  </library_materials>
  <library_geometries>
    <geometry id="Plane-mesh" name="Plane">
      <mesh>
        <source id="Plane-mesh-positions">
          <float_array id="Plane-mesh-positions-array" count="306">-1 -1 0 1 -1 0 -1 1 0 1 1 0 0.03597378 0.1004735 0 0.03597378 0.05109399 0 -0.1007374 0.08506703 0 -0.003568947 -0.00898844 0 -0.008316576 0.002930462 0 -0.01697212 -0.03620886 0 0.1007733 0.03568756 0 -0.08532774 0.1004735 0 0.001275777 0.008341848 0 -0.002438724 -0.009397625 0 0.006488025 0.005664825 0 0.002474606 0.008086264 0 0.005621135 0.00645262 0 0.003604888 0.007677078 0 -0.1007374 0.03568756 0 -0.001156866 0.008349418 0 -0.002301514 0.008113741 0 -0.03238177 -0.1009948 0 -0.006303906 0.005813002 0 -0.03238177 -0.05201029 0 -0.005417168 0.006572663 0 0.00840801 0.002763807 0 -0.004445374 0.007215738 0 0.1007733 -0.1009948 0 0.008066654 -0.005118072 0 0.1007733 -0.05201029 0 0.007891058 0.00380671 0 0.01700806 -0.03620886 0 0.03241771 -0.05201029 0 -0.03593784 0.03568756 0 -0.03593784 0.1004735 0 -0.008372128 -0.004075169 0 -0.007855117 -0.005118072 0 0.008574724 -0.004075169 0 -0.00906974 -6.55687e-4 0 -0.008981466 6.01891e-4 0 -0.03593784 -0.0172472 0 -0.007767319 0.003982305 0 0.1007733 0.1004735 0 -0.05134749 -0.03265357 0 0.04498928 0.02551412 0 0.05177855 0.03213226 0 -0.007091879 0.004946351 0 -0.1007374 -0.03620886 0 0.03597378 0.01672583 0 -0.05134749 -0.03620886 0 -0.1007374 -0.1009948 0 0.03597378 -0.0172472 0 0.03597378 0.002131998 0 -0.02576225 0.04447585 0 -0.03238177 0.05109399 0 0.008926391 -0.002974689 0 -0.008725821 0.001800477 0 -0.008753299 -0.002974689 0 0.01700806 0.03568756 0 -0.05134749 -0.1009948 0 0.1007733 -0.03265357 0 0.05177855 -0.03265357 0 -0.008989036 -0.00183022 0 -0.1007374 -0.1007374 0 0.00741589 -0.006089687 0 0.007247805 0.004778325 0 1.79606e-5 0.008430123 0 -0.03593784 -0.05201029 0 0.00366044 -0.00898844 0 0.00465691 0.00712794 0 0.004744708 -0.008439302 0 -0.03593784 -0.08558833 0 -0.001239836 -0.00965321 0 0.009024977 5.189e-4 0 -0.01697212 0.03568756 0 1.79606e-5 -0.009741485 0 0.1007733 0.03213226 0 0.005741178 -0.007763981 0 0.08536368 -0.03620886 0 -0.004620969 -0.008439302 0 0.03597378 -0.1009948 0 0.002502083 -0.009397625 0 0.001283288 -0.00965321 0 -0.007211923 -0.006089687 0 0.006636142 -0.006976246 0 0.03241771 0.05109399 0 -0.03238177 0.1004735 0 0.03241771 0.1004735 0 0.03597378 -0.06403899 0 0.03597378 -0.03620886 0 0.009105682 -6.55687e-4 0 -0.005585253 -0.007763981 0 -0.006452083 -0.006976246 0 0.008789181 0.001663267 0 -0.003402233 0.007732629 0 -0.1007374 0.03213226 0 -0.1007374 -0.03265357 0 0.009107947 -0.00183022 0 0.03241771 -0.1009948 0 -0.03593784 0.03213226 0 -0.03593784 0.003964722 0 0.05177855 0.03568756 0</float_array>
          <technique_common>
            <accessor source="#Plane-mesh-positions-array" count="102" stride="3">
              <param name="X" type="float"/>
              <param name="Y" type="float"/>
              <param name="Z" type="float"/>
            </accessor>
          </technique_common>
        </source>
        <source id="Plane-mesh-normals">
          <float_array id="Plane-mesh-normals-array" count="3">0 0 1</float_array>
          <technique_common>
            <accessor source="#Plane-mesh-normals-array" count="1" stride="3">
              <param name="X" type="float"/>
              <param name="Y" type="float"/>
              <param name="Z" type="float"/>
            </accessor>
          </technique_common>
        </source>
        <vertices id="Plane-mesh-vertices">
          <input semantic="POSITION" source="#Plane-mesh-positions"/>
        </vertices>
        <polylist count="118">
          <input semantic="VERTEX" source="#Plane-mesh-vertices" offset="0"/>
          <input semantic="NORMAL" source="#Plane-mesh-normals" offset="1"/>
          <vcount>3 3 3 3 3 3 3 3 3 3 3 3 3 3 3 3 3 3 3 3 3 3 3 3 3 3 3 3 3 3 3 3 3 3 3 3 3 3 3 3 3 3 3 3 3 3 3 3 3 3 3 3 3 3 3 3 3 3 3 3 3 3 3 3 3 3 3 3 3 3 3 3 3 3 3 3 3 3 3 3 3 3 3 3 3 3 3 3 3 3 3 3 3 3 3 3 3 3 3 3 3 3 3 3 3 3 3 3 3 3 3 3 3 3 3 3 3 3 </vcount>
          <p>0 0 21 0 59 0 31 0 68 0 81 0 45 0 101 0 44 0 34 0 86 0 2 0 99 0 66 0 12 0 1 0 29 0 27 0 80 0 88 0 98 0 1 0 27 0 80 0 50 0 63 0 0 0 59 0 50 0 0 0 0 0 1 0 98 0 88 0 32 0 98 0 21 0 23 0 71 0 1 0 80 0 98 0 23 0 67 0 71 0 0 0 98 0 21 0 21 0 71 0 59 0 0 0 63 0 47 0 49 0 67 0 23 0 96 0 0 0 47 0 49 0 23 0 9 0 96 0 47 0 49 0 43 0 96 0 49 0 49 0 9 0 40 0 40 0 43 0 49 0 38 0 100 0 62 0 62 0 100 0 57 0 40 0 92 0 83 0 32 0 88 0 89 0 31 0 32 0 89 0 31 0 89 0 51 0 57 0 100 0 40 0 35 0 57 0 40 0 29 0 1 0 60 0 3 0 76 0 1 0 1 0 76 0 60 0 78 0 29 0 60 0 78 0 60 0 61 0 36 0 35 0 40 0 83 0 36 0 40 0 89 0 78 0 61 0 51 0 52 0 55 0 89 0 61 0 51 0 40 0 9 0 92 0 92 0 9 0 91 0 31 0 51 0 84 0 52 0 97 0 55 0 91 0 9 0 79 0 79 0 9 0 7 0 51 0 55 0 37 0 51 0 37 0 28 0 7 0 9 0 13 0 13 0 9 0 72 0 51 0 28 0 64 0 51 0 64 0 84 0 72 0 9 0 75 0 75 0 9 0 31 0 31 0 84 0 77 0 31 0 77 0 70 0 82 0 75 0 31 0 81 0 82 0 31 0 31 0 70 0 68 0 2 0 0 0 95 0 0 0 96 0 95 0 18 0 2 0 95 0 99 0 44 0 74 0 18 0 95 0 99 0 74 0 53 0 33 0 33 0 18 0 99 0 45 0 76 0 10 0 33 0 99 0 74 0 58 0 74 0 44 0 45 0 10 0 101 0 101 0 5 0 44 0 58 0 44 0 85 0 5 0 85 0 44 0 2 0 18 0 6 0 2 0 6 0 11 0 10 0 76 0 3 0 42 0 10 0 3 0 3 0 2 0 86 0 2 0 11 0 34 0 4 0 42 0 3 0 85 0 5 0 4 0 87 0 85 0 4 0 33 0 53 0 54 0 86 0 87 0 3 0 33 0 54 0 34 0 87 0 4 0 3 0 34 0 54 0 86 0 97 0 52 0 90 0 48 0 12 0 15 0 99 0 100 0 46 0 100 0 38 0 39 0 90 0 52 0 73 0 73 0 52 0 93 0 100 0 39 0 56 0 100 0 56 0 8 0 93 0 52 0 25 0 25 0 52 0 48 0 100 0 8 0 41 0 100 0 41 0 46 0 30 0 25 0 48 0 65 0 30 0 48 0 99 0 46 0 22 0 99 0 22 0 24 0 14 0 65 0 48 0 16 0 14 0 48 0 99 0 24 0 26 0 99 0 26 0 94 0 69 0 16 0 48 0 17 0 69 0 48 0 99 0 94 0 20 0 99 0 20 0 19 0 17 0 48 0 15 0 48 0 44 0 12 0 99 0 19 0 66 0 12 0 44 0 99 0</p>
        </polylist>
      </mesh>
    </geometry>
    <geometry id="Mesh_004-mesh" name="Mesh.004">
      <mesh>
        <source id="Mesh_004-mesh-positions">
          <float_array id="Mesh_004-mesh-positions-array" count="276">-0.002566933 -0.003714978 0 -0.003667652 -0.002586305 0 -0.007195472 -0.002586305 0 -0.007195472 -0.00721389 0 -0.003667652 -0.00721389 0 -0.002566933 -0.006113409 0 -0.002566933 0.002295136 0 -0.007195472 0.002295136 0 -0.007195472 -0.002332389 0 -0.003667652 -0.002332389 0 -0.002566933 -0.001231908 0 1.2829e-6 -6.95822e-4 0 -8.85627e-5 -6.89519e-4 0 -1.74195e-4 -6.71263e-4 0 -2.54927e-4 -6.42033e-4 0 -3.30073e-4 -6.02811e-4 0 -3.98948e-4 -5.54574e-4 0 -4.60865e-4 -4.98304e-4 0 -5.15138e-4 -4.34979e-4 0 -5.61082e-4 -3.6558e-4 0 -5.9801e-4 -2.91087e-4 0 -6.25236e-4 -2.12478e-4 0 -6.42075e-4 -1.30734e-4 0 -6.47841e-4 -4.68348e-5 0 -6.41537e-4 4.29922e-5 0 -6.23277e-4 1.28606e-4 0 -5.94041e-4 2.09322e-4 0 -5.5481e-4 2.84452e-4 0 -5.06564e-4 3.53313e-4 0 -4.50281e-4 4.15217e-4 0 -3.86944e-4 4.69479e-4 0 -3.1753e-4 5.15413e-4 0 -2.4302e-4 5.52333e-4 0 -1.64395e-4 5.79554e-4 0 -8.26335e-5 5.9639e-4 0 1.2829e-6 6.02153e-4 0 9.11285e-5 5.95849e-4 0 1.7676e-4 5.77593e-4 0 2.57493e-4 5.48364e-4 0 3.32639e-4 5.09141e-4 0 4.01514e-4 4.60905e-4 0 4.63431e-4 4.04635e-4 0 5.17704e-4 3.4131e-4 0 5.63648e-4 2.71911e-4 0 6.00575e-4 1.97417e-4 0 6.27802e-4 1.18808e-4 0 6.44641e-4 3.70643e-5 0 6.50407e-4 -4.68348e-5 0 6.5057e-4 -1.30734e-4 0 6.37602e-4 -2.12478e-4 0 6.12483e-4 -2.91087e-4 0 5.76192e-4 -3.6558e-4 0 5.29709e-4 -4.34979e-4 0 4.74014e-4 -4.98304e-4 0 4.10088e-4 -5.54574e-4 0 3.38911e-4 -6.0281e-4 0 2.61461e-4 -6.42032e-4 0 1.7872e-4 -6.71261e-4 0 9.16673e-5 -6.89517e-4 0 0.002569556 0.007176637 0 0.002569556 0.003649532 0 0.003698468 0.002549111 0 0.007198095 0.002549111 0 0.007198095 0.007176637 0 -0.006094813 0.007176637 0 -0.007195472 0.006076216 0 -0.007195472 0.002549111 0 -0.002566933 0.002549111 0 -0.002566933 0.007176637 0 0.007198095 -0.00721389 0 0.007198095 -0.003714978 0 0.006097376 -0.002586305 0 0.002569556 -0.002586305 0 0.002569556 -0.00721389 0 0.002315521 0.007176637 0 -0.002312958 0.007176637 0 -0.002312958 0.003649532 0 -0.001212239 0.002549111 0 0.001214861 0.002549111 0 0.002315521 0.003649532 0 0.003698468 0.002295136 0 0.002569556 0.001194655 0 0.002569556 -0.001231908 0 0.003698468 -0.002332389 0 0.007198095 -0.002332389 0 0.007198095 0.002295136 0 -0.002312958 -0.00721389 0 0.002315521 -0.00721389 0 0.002315521 -0.003714978 0 0.001214861 -0.002586305 0 -0.001212239 -0.002586305 0 -0.002312958 -0.003714978 0</float_array>
          <technique_common>
            <accessor source="#Mesh_004-mesh-positions-array" count="92" stride="3">
              <param name="X" type="float"/>
              <param name="Y" type="float"/>
              <param name="Z" type="float"/>
            </accessor>
          </technique_common>
        </source>
        <source id="Mesh_004-mesh-normals">
          <float_array id="Mesh_004-mesh-normals-array" count="3">0 0 1</float_array>
          <technique_common>
            <accessor source="#Mesh_004-mesh-normals-array" count="1" stride="3">
              <param name="X" type="float"/>
              <param name="Y" type="float"/>
              <param name="Z" type="float"/>
            </accessor>
          </technique_common>
        </source>
        <vertices id="Mesh_004-mesh-vertices">
          <input semantic="POSITION" source="#Mesh_004-mesh-positions"/>
        </vertices>
        <polylist material="SVGMat_004-material" count="74">
          <input semantic="VERTEX" source="#Mesh_004-mesh-vertices" offset="0"/>
          <input semantic="NORMAL" source="#Mesh_004-mesh-normals" offset="1"/>
          <vcount>3 3 3 3 3 3 3 3 3 3 3 3 3 3 3 3 3 3 3 3 3 3 3 3 3 3 3 3 3 3 3 3 3 3 3 3 3 3 3 3 3 3 3 3 3 3 3 3 3 3 3 3 3 3 3 3 3 3 3 3 3 3 3 3 3 3 3 3 3 3 3 3 3 3 </vcount>
          <p>2 0 4 0 1 0 7 0 9 0 10 0 21 0 45 0 37 0 60 0 61 0 63 0 65 0 66 0 67 0 73 0 69 0 70 0 76 0 77 0 79 0 80 0 83 0 84 0 91 0 86 0 88 0 0 0 1 0 4 0 2 0 3 0 4 0 4 0 5 0 0 0 10 0 6 0 7 0 7 0 8 0 9 0 37 0 36 0 35 0 35 0 34 0 33 0 33 0 32 0 31 0 31 0 30 0 29 0 29 0 28 0 27 0 27 0 26 0 25 0 25 0 24 0 23 0 23 0 22 0 21 0 21 0 20 0 19 0 19 0 18 0 17 0 17 0 16 0 15 0 15 0 14 0 13 0 13 0 12 0 11 0 11 0 58 0 57 0 57 0 56 0 55 0 55 0 54 0 53 0 53 0 52 0 51 0 51 0 50 0 49 0 49 0 48 0 47 0 47 0 46 0 45 0 45 0 44 0 43 0 43 0 42 0 41 0 41 0 40 0 39 0 39 0 38 0 37 0 37 0 35 0 33 0 33 0 31 0 29 0 29 0 27 0 25 0 25 0 23 0 21 0 21 0 19 0 17 0 17 0 15 0 13 0 13 0 11 0 57 0 57 0 55 0 53 0 53 0 51 0 49 0 49 0 47 0 45 0 45 0 43 0 41 0 41 0 39 0 37 0 37 0 33 0 29 0 29 0 25 0 21 0 21 0 17 0 13 0 13 0 57 0 45 0 53 0 49 0 45 0 45 0 41 0 37 0 37 0 29 0 21 0 21 0 13 0 45 0 53 0 45 0 57 0 62 0 63 0 61 0 59 0 60 0 63 0 67 0 68 0 64 0 64 0 65 0 67 0 70 0 71 0 73 0 72 0 73 0 71 0 79 0 74 0 75 0 75 0 76 0 79 0 77 0 78 0 79 0 84 0 85 0 80 0 80 0 81 0 82 0 82 0 83 0 80 0 88 0 89 0 90 0 90 0 91 0 88 0 86 0 87 0 88 0</p>
        </polylist>
      </mesh>
    </geometry>
    <geometry id="Mesh_012-mesh" name="Mesh.012">
      <mesh>
        <source id="Mesh_012-mesh-positions">
          <float_array id="Mesh_012-mesh-positions-array" count="555">-0.003605723 -0.007326066 0 -0.007331132 -0.007326066 0 -0.007331132 -0.002416312 0 -0.003605723 -0.002416312 0 -0.002420365 -0.003601431 0 -0.002420365 -0.006140947 0 -0.007048904 -0.007043898 0 -0.003718614 -0.007043898 0 -0.002702593 -0.006028056 0 -0.002702593 -0.003742516 0 -0.003718614 -0.002726674 0 -0.007048904 -0.002726674 0 -0.003605723 -0.002444505 0 -0.007331132 -0.002444505 0 -0.007331132 0.002465128 0 -0.002420365 0.002465128 0 -0.002420365 -0.001259446 0 -0.007048904 -0.002162337 0 -0.003718614 -0.002162337 0 -0.002702593 -0.001146554 0 -0.002702593 0.00218296 0 -0.007048904 0.00218296 0 -3.53076e-4 -3.49453e-4 0 -3.04372e-4 -3.92268e-4 0 -4.83214e-4 -1.25286e-4 0 -4.61557e-4 -1.88088e-4 0 -1.91676e-4 4.78534e-4 0 -2.50376e-4 4.4924e-4 0 -6.25178e-5 5.13609e-4 0 -1.28861e-4 5.00187e-4 0 3.66607e-4 3.70076e-4 0 3.17903e-4 4.12892e-4 0 3.17902e-4 -3.92269e-4 0 3.66606e-4 -3.49454e-4 0 4.45786e-4 -2.46776e-4 0 4.75087e-4 -1.88089e-4 0 -6.25178e-5 -4.92986e-4 0 6.76513e-6 -4.97592e-4 0 7.60481e-5 -4.92987e-4 0 1.42391e-4 -4.79565e-4 0 -4.96639e-4 7.95796e-5 0 -5.01245e-4 1.03116e-5 0 -4.32256e-4 -2.46775e-4 0 -3.959e-4 -3.00759e-4 0 5.1017e-4 7.95801e-5 0 4.96745e-4 1.45909e-4 0 2.05207e-4 -4.57913e-4 0 2.63906e-4 -4.28618e-4 0 -4.61557e-4 2.08711e-4 0 -4.83214e-4 1.45909e-4 0 -1.91676e-4 -4.57912e-4 0 -1.28861e-4 -4.79564e-4 0 4.45787e-4 2.67399e-4 0 4.09431e-4 3.21383e-4 0 -4.96639e-4 -5.89569e-5 0 5.10169e-4 -5.89578e-5 0 5.14775e-4 1.03116e-5 0 6.76513e-6 5.18214e-4 0 7.6049e-5 5.1361e-4 0 1.42392e-4 5.00187e-4 0 -3.04372e-4 4.12891e-4 0 2.63907e-4 4.4924e-4 0 2.05208e-4 4.78535e-4 0 -2.50376e-4 -4.28617e-4 0 -3.53076e-4 3.70076e-4 0 -3.959e-4 3.21382e-4 0 4.0943e-4 -3.0076e-4 0 4.96744e-4 -1.25287e-4 0 4.75088e-4 2.08711e-4 0 -4.32256e-4 2.67398e-4 0 -5.66641e-4 -5.62973e-4 0 -4.89031e-4 -6.31199e-4 0 -7.74017e-4 -2.05763e-4 0 -7.39506e-4 -3.05837e-4 0 -3.09452e-4 7.56426e-4 0 -4.02989e-4 7.09745e-4 0 -1.03637e-4 8.12318e-4 0 -2.09355e-4 7.90929e-4 0 5.80173e-4 5.83598e-4 0 5.02563e-4 6.51824e-4 0 5.02562e-4 -6.31201e-4 0 5.80172e-4 -5.62974e-4 0 7.06346e-4 -3.99358e-4 0 7.53037e-4 -3.05839e-4 0 -1.03637e-4 -7.91693e-4 0 6.76513e-6 -7.99032e-4 0 1.17167e-4 -7.91695e-4 0 2.22886e-4 -7.70306e-4 0 -7.9541e-4 1.20691e-4 0 -8.0275e-4 1.03125e-5 0 -6.92816e-4 -3.99356e-4 0 -6.34882e-4 -4.85379e-4 0 8.08941e-4 1.20692e-4 0 7.87549e-4 2.26388e-4 0 3.22982e-4 -7.35803e-4 0 4.1652e-4 -6.89122e-4 0 -7.39506e-4 3.26462e-4 0 -7.74017e-4 2.26387e-4 0 -3.09452e-4 -7.35802e-4 0 -2.09355e-4 -7.70305e-4 0 7.06348e-4 4.19981e-4 0 6.48414e-4 5.06004e-4 0 -7.9541e-4 -1.00067e-4 0 8.0894e-4 -1.00068e-4 0 8.1628e-4 1.03125e-5 0 6.76513e-6 8.19656e-4 0 1.17169e-4 8.12319e-4 0 2.22887e-4 7.9093e-4 0 -4.89031e-4 6.51823e-4 0 4.16521e-4 7.09746e-4 0 3.22984e-4 7.56427e-4 0 -4.02989e-4 -6.89121e-4 0 -5.66641e-4 5.83597e-4 0 -6.34882e-4 5.06004e-4 0 6.48412e-4 -4.85381e-4 0 7.87547e-4 -2.05764e-4 0 7.53039e-4 3.26463e-4 0 -6.92816e-4 4.1998e-4 0 0.007344663 0.002436935 0 0.003647506 0.002436935 0 0.002462148 0.003622055 0 0.002462148 0.007346689 0 0.007344663 0.007346689 0 0.003760397 0.002719104 0 0.007062435 0.002719104 0 0.007062435 0.007064521 0 0.002716124 0.007064521 0 0.002716124 0.003734886 0 -0.002420365 0.002436935 0 -0.007331132 0.002436935 0 -0.007331132 0.00616157 0 -0.006145775 0.007346689 0 -0.002420365 0.007346689 0 -0.007048904 0.002719104 0 -0.002702593 0.002719104 0 -0.002702593 0.007064521 0 -0.006032884 0.007064521 0 -0.007048904 0.006048679 0 0.007344663 -0.007326066 0 0.002433896 -0.007326066 0 0.002433896 -0.002416312 0 0.006159305 -0.002416312 0 0.007344663 -0.003601431 0 0.002716124 -0.007043898 0 0.007062435 -0.007043898 0 0.007062435 -0.003742516 0 0.006046414 -0.002726674 0 0.002716124 -0.002726674 0 0.001276791 0.002436935 0 -0.00126326 0.002436935 0 -0.002448618 0.003622055 0 -0.002448618 0.007346689 0 0.002462148 0.007346689 0 0.002462148 0.003622055 0 -0.001150369 0.002719104 0 0.001135647 0.002719104 0 0.002151668 0.003734886 0 0.002151668 0.007064521 0 -0.00216639 0.007064521 0 -0.00216639 0.003734886 0 0.007344663 -0.002444505 0 0.003647506 -0.002444505 0 0.002462148 -0.001259446 0 0.002462148 0.001280069 0 0.003647506 0.002465128 0 0.007344663 0.002465128 0 0.003760397 -0.002162337 0 0.007062435 -0.002162337 0 0.007062435 0.00218296 0 0.003760397 0.00218296 0 0.002744376 0.001167178 0 0.002744376 -0.001118361 0 0.002462148 -0.007326066 0 -0.002448618 -0.007326066 0 -0.002448618 -0.003629624 0 -0.00126326 -0.002444505 0 0.001276791 -0.002444505 0 0.002462148 -0.003629624 0 -0.00216639 -0.007043898 0 0.00217992 -0.007043898 0 0.00217992 -0.003742516 0 0.001163899 -0.002726674 0 -0.001122117 -0.002726674 0 -0.002138137 -0.003742516 0 -0.002138137 -0.007043898 0</float_array>
          <technique_common>
            <accessor source="#Mesh_012-mesh-positions-array" count="185" stride="3">
              <param name="X" type="float"/>
              <param name="Y" type="float"/>
              <param name="Z" type="float"/>
            </accessor>
          </technique_common>
        </source>
        <source id="Mesh_012-mesh-normals">
          <float_array id="Mesh_012-mesh-normals-array" count="3">0 0 1</float_array>
          <technique_common>
            <accessor source="#Mesh_012-mesh-normals-array" count="1" stride="3">
              <param name="X" type="float"/>
              <param name="Y" type="float"/>
              <param name="Z" type="float"/>
            </accessor>
          </technique_common>
        </source>
        <vertices id="Mesh_012-mesh-vertices">
          <input semantic="POSITION" source="#Mesh_012-mesh-positions"/>
        </vertices>
        <polylist material="SVGMat_005-material" count="185">
          <input semantic="VERTEX" source="#Mesh_012-mesh-vertices" offset="0"/>
          <input semantic="NORMAL" source="#Mesh_012-mesh-normals" offset="1"/>
          <vcount>3 3 3 3 3 3 3 3 3 3 3 3 3 3 3 3 3 3 3 3 3 3 3 3 3 3 3 3 3 3 3 3 3 3 3 3 3 3 3 3 3 3 3 3 3 3 3 3 3 3 3 3 3 3 3 3 3 3 3 3 3 3 3 3 3 3 3 3 3 3 3 3 3 3 3 3 3 3 3 3 3 3 3 3 3 3 3 3 3 3 3 3 3 3 3 3 3 3 3 3 3 3 3 3 3 3 3 3 3 3 3 3 3 3 3 3 3 3 3 3 3 3 3 3 3 3 3 3 3 3 3 3 3 3 3 3 3 3 3 3 3 3 3 3 3 3 3 3 3 3 3 3 3 3 3 3 3 3 3 3 3 3 3 3 3 3 3 3 3 3 3 3 3 3 3 3 3 3 3 3 3 3 3 3 3 </vcount>
          <p>3 0 11 0 10 0 4 0 10 0 9 0 5 0 9 0 8 0 8 0 0 0 5 0 11 0 1 0 6 0 6 0 0 0 7 0 14 0 20 0 15 0 19 0 12 0 16 0 17 0 12 0 18 0 14 0 17 0 21 0 16 0 20 0 19 0 102 0 24 0 54 0 51 0 84 0 36 0 76 0 29 0 28 0 105 0 28 0 57 0 55 0 104 0 56 0 67 0 103 0 55 0 30 0 79 0 31 0 33 0 114 0 66 0 58 0 105 0 57 0 65 0 117 0 69 0 80 0 33 0 32 0 49 0 88 0 40 0 59 0 106 0 58 0 63 0 98 0 50 0 34 0 83 0 35 0 91 0 22 0 43 0 75 0 60 0 27 0 89 0 54 0 41 0 36 0 85 0 37 0 62 0 107 0 59 0 61 0 110 0 62 0 86 0 39 0 38 0 95 0 32 0 47 0 23 0 111 0 63 0 40 0 89 0 41 0 116 0 52 0 68 0 87 0 46 0 39 0 90 0 43 0 42 0 108 0 64 0 60 0 64 0 113 0 65 0 92 0 45 0 44 0 93 0 68 0 45 0 73 0 42 0 25 0 94 0 47 0 46 0 101 0 30 0 53 0 77 0 26 0 29 0 48 0 97 0 49 0 69 0 96 0 48 0 22 0 71 0 23 0 66 0 82 0 34 0 50 0 99 0 51 0 104 0 44 0 56 0 72 0 25 0 24 0 35 0 115 0 67 0 100 0 53 0 52 0 31 0 109 0 61 0 74 0 27 0 26 0 85 0 38 0 37 0 122 0 124 0 118 0 124 0 119 0 118 0 126 0 120 0 127 0 123 0 120 0 119 0 121 0 125 0 122 0 130 0 133 0 137 0 131 0 137 0 136 0 133 0 128 0 134 0 132 0 134 0 128 0 131 0 135 0 132 0 141 0 147 0 146 0 142 0 146 0 145 0 142 0 144 0 138 0 143 0 138 0 144 0 147 0 139 0 143 0 159 0 149 0 154 0 158 0 150 0 159 0 151 0 157 0 152 0 155 0 149 0 148 0 156 0 148 0 153 0 153 0 157 0 156 0 164 0 168 0 165 0 165 0 167 0 160 0 164 0 170 0 169 0 163 0 171 0 170 0 166 0 162 0 161 0 167 0 161 0 160 0 176 0 182 0 181 0 176 0 180 0 177 0 177 0 179 0 172 0 178 0 172 0 179 0 178 0 184 0 183 0 174 0 178 0 183 0 175 0 183 0 182 0 3 0 2 0 11 0 4 0 3 0 10 0 5 0 4 0 9 0 8 0 7 0 0 0 11 0 2 0 1 0 6 0 1 0 0 0 14 0 21 0 20 0 19 0 18 0 12 0 17 0 13 0 12 0 14 0 13 0 17 0 16 0 15 0 20 0 102 0 72 0 24 0 51 0 99 0 84 0 76 0 77 0 29 0 105 0 76 0 28 0 55 0 103 0 104 0 67 0 115 0 103 0 30 0 78 0 79 0 33 0 81 0 114 0 58 0 106 0 105 0 65 0 113 0 117 0 80 0 81 0 33 0 49 0 97 0 88 0 59 0 107 0 106 0 63 0 111 0 98 0 34 0 82 0 83 0 91 0 70 0 22 0 75 0 108 0 60 0 89 0 102 0 54 0 36 0 84 0 85 0 62 0 110 0 107 0 61 0 109 0 110 0 86 0 87 0 39 0 95 0 80 0 32 0 23 0 71 0 111 0 40 0 88 0 89 0 116 0 100 0 52 0 87 0 94 0 46 0 90 0 91 0 43 0 108 0 112 0 64 0 64 0 112 0 113 0 92 0 93 0 45 0 93 0 116 0 68 0 73 0 90 0 42 0 94 0 95 0 47 0 101 0 78 0 30 0 77 0 74 0 26 0 48 0 96 0 97 0 69 0 117 0 96 0 22 0 70 0 71 0 66 0 114 0 82 0 50 0 98 0 99 0 104 0 92 0 44 0 72 0 73 0 25 0 35 0 83 0 115 0 100 0 101 0 53 0 31 0 79 0 109 0 74 0 75 0 27 0 85 0 86 0 38 0 122 0 125 0 124 0 124 0 123 0 119 0 126 0 121 0 120 0 123 0 127 0 120 0 121 0 126 0 125 0 130 0 129 0 133 0 131 0 130 0 137 0 133 0 129 0 128 0 132 0 135 0 134 0 131 0 136 0 135 0 141 0 140 0 147 0 142 0 141 0 146 0 142 0 145 0 144 0 143 0 139 0 138 0 147 0 140 0 139 0 159 0 150 0 149 0 158 0 151 0 150 0 151 0 158 0 157 0 155 0 154 0 149 0 156 0 155 0 148 0 153 0 152 0 157 0 164 0 169 0 168 0 165 0 168 0 167 0 164 0 163 0 170 0 163 0 162 0 171 0 166 0 171 0 162 0 167 0 166 0 161 0 176 0 175 0 182 0 176 0 181 0 180 0 177 0 180 0 179 0 178 0 173 0 172 0 174 0 173 0 178 0 175 0 174 0 183 0</p>
        </polylist>
      </mesh>
    </geometry>
  </library_geometries>
  <library_controllers/>
  <library_visual_scenes>
    <visual_scene id="Scene" name="Scene">
      <node id="logo_masked" name="logo_masked" type="NODE">
        <matrix sid="transform">15 0 0 0 0 15 0 0 0 0 1 0 0 0 0 1</matrix>
        <instance_geometry url="#Plane-mesh" name="logo_masked"/>
      </node>
      <node id="logo" name="logo" type="NODE">
        <matrix sid="transform">210 0 0 0 0 210 0 0 0 0 1 0 0 0 0 1</matrix>
        <instance_geometry url="#Mesh_004-mesh" name="logo">
          <bind_material>
            <technique_common>
              <instance_material symbol="SVGMat_004-material" target="#SVGMat_004-material"/>
            </technique_common>
          </bind_material>
        </instance_geometry>
      </node>
      <node id="logo_outlined" name="logo_outlined" type="NODE">
        <matrix sid="transform">210 0 0 0 0 210 0 0 0 0 1 0 0 0 0 1</matrix>
        <instance_geometry url="#Mesh_012-mesh" name="logo_outlined">
          <bind_material>
            <technique_common>
              <instance_material symbol="SVGMat_005-material" target="#SVGMat_005-material"/>
            </technique_common>
          </bind_material>
        </instance_geometry>
      </node>
    </visual_scene>
  </library_visual_scenes>
  <scene>
    <instance_visual_scene url="#Scene"/>
  </scene>
</COLLADA>